{
  "host": "Feathers-app.feathersjs.com",
  "port": 80,
  "nedb": "NEDB_BASE_PATH",
  "public": "../public/",
  "auth": {
    "token": {
      "secret": "FEATHERS_AUTH_SECRET"
    },
    "local": {}
  }
}
